<?xml version="1.0" encoding="UTF-8"?>
<testsuite name="TestNoEmptyAndValidMeanings" time="0.001" tests="32" errors="0" skipped="0" failures="0">
  <properties>
    <property name="java.runtime.name" value="Java(TM) SE Runtime Environment"/>
    <property name="sun.boot.library.path" value="C:\Program Files\Java\jdk1.8.0_66\jre\bin"/>
    <property name="java.vm.version" value="25.66-b18"/>
    <property name="java.vm.vendor" value="Oracle Corporation"/>
    <property name="java.vendor.url" value="http://java.oracle.com/"/>
    <property name="path.separator" value=";"/>
    <property name="guice.disable.misplaced.annotation.check" value="true"/>
    <property name="java.vm.name" value="Java HotSpot(TM) 64-Bit Server VM"/>
    <property name="file.encoding.pkg" value="sun.io"/>
    <property name="user.script" value=""/>
    <property name="user.country" value="RU"/>
    <property name="sun.java.launcher" value="SUN_STANDARD"/>
    <property name="sun.os.patch.level" value=""/>
    <property name="java.vm.specification.name" value="Java Virtual Machine Specification"/>
    <property name="user.dir" value="D:\PuhsFiles\NetBeans\NetBeansProjects\Bitbucket\TestSber4.1"/>
    <property name="java.runtime.version" value="1.8.0_66-b18"/>
    <property name="java.awt.graphicsenv" value="sun.awt.Win32GraphicsEnvironment"/>
    <property name="java.endorsed.dirs" value="C:\Program Files\Java\jdk1.8.0_66\jre\lib\endorsed"/>
    <property name="os.arch" value="amd64"/>
    <property name="java.io.tmpdir" value="C:\Users\medve\AppData\Local\Temp\"/>
    <property name="line.separator" value="&#10;"/>
    <property name="java.vm.specification.vendor" value="Oracle Corporation"/>
    <property name="user.variant" value=""/>
    <property name="os.name" value="Windows 10"/>
    <property name="maven.ext.class.path" value="C:\Program Files\NetBeans 8.1\java\maven-nblib\netbeans-eventspy.jar"/>
    <property name="classworlds.conf" value="C:\Program Files\NetBeans 8.1\java\maven\bin\m2.conf"/>
    <property name="sun.jnu.encoding" value="Cp1251"/>
    <property name="java.library.path" value="C:\Program Files\Java\jdk1.8.0_66\bin;C:\Windows\Sun\Java\bin;C:\Windows\system32;C:\Windows;C:\ProgramData\Oracle\Java\javapath;C:\Windows\system32;C:\Windows;C:\Windows\System32\Wbem;C:\Windows\System32\WindowsPowerShell\v1.0\;C:\Program Files\Microsoft SQL Server\110\Tools\Binn\;C:\Program Files (x86)\Microsoft SQL Server\110\Tools\Binn\;C:\Program Files\Microsoft SQL Server\110\DTS\Binn\;C:\Program Files (x86)\Microsoft SQL Server\110\Tools\Binn\ManagementStudio\;C:\Program Files (x86)\Microsoft Visual Studio 10.0\Common7\IDE\PrivateAssemblies\;C:\Program Files (x86)\Microsoft SQL Server\110\DTS\Binn\;C:\Program Files\Microsoft SQL Server\120\Tools\Binn\;C:\Program Files (x86)\Windows Kits\10\Windows Performance Toolkit\;C:\Program Files (x86)\nodejs\;C:\Program Files\Microsoft\Web Platform Installer\;C:\Program Files (x86)\GtkSharp\2.12\bin;C:\Program Files (x86)\Skype\Phone\;C:\Program Files\TortoiseGit\bin;C:\Program Files (x86)\Common Files\Acronis\VirtualFile\;C:\Program Files (x86)\Common Files\Acronis\VirtualFile64\;C:\Program Files (x86)\Common Files\Acronis\SnapAPI\;C:\Program Files (x86)\GNU\GnuPG\pub;C:\Program Files\Git\cmd;C:\Users\medve\AppData\Roaming\npm;C:\Program Files\Java\jdk1.8.0_66\bin\;."/>
    <property name="java.specification.name" value="Java Platform API Specification"/>
    <property name="java.class.version" value="52.0"/>
    <property name="sun.management.compiler" value="HotSpot 64-Bit Tiered Compilers"/>
    <property name="os.version" value="10.0"/>
    <property name="user.home" value="C:\Users\medve"/>
    <property name="user.timezone" value="Europe/Moscow"/>
    <property name="java.awt.printerjob" value="sun.awt.windows.WPrinterJob"/>
    <property name="java.specification.version" value="1.8"/>
    <property name="file.encoding" value="UTF-8"/>
    <property name="user.name" value="medve"/>
    <property name="java.class.path" value="C:\Program Files\NetBeans 8.1\java\maven\boot\plexus-classworlds-2.4.jar"/>
    <property name="java.vm.specification.version" value="1.8"/>
    <property name="sun.arch.data.model" value="64"/>
    <property name="java.home" value="C:\Program Files\Java\jdk1.8.0_66\jre"/>
    <property name="sun.java.command" value="org.codehaus.plexus.classworlds.launcher.Launcher -Dmaven.ext.class.path=C:\Program Files\NetBeans 8.1\java\maven-nblib\netbeans-eventspy.jar -Dfile.encoding=UTF-8 clean test site jetty:run"/>
    <property name="java.specification.vendor" value="Oracle Corporation"/>
    <property name="user.language" value="ru"/>
    <property name="awt.toolkit" value="sun.awt.windows.WToolkit"/>
    <property name="java.vm.info" value="mixed mode"/>
    <property name="java.version" value="1.8.0_66"/>
    <property name="java.ext.dirs" value="C:\Program Files\Java\jdk1.8.0_66\jre\lib\ext;C:\Windows\Sun\Java\lib\ext"/>
    <property name="sun.boot.class.path" value="C:\Program Files\Java\jdk1.8.0_66\jre\lib\resources.jar;C:\Program Files\Java\jdk1.8.0_66\jre\lib\rt.jar;C:\Program Files\Java\jdk1.8.0_66\jre\lib\sunrsasign.jar;C:\Program Files\Java\jdk1.8.0_66\jre\lib\jsse.jar;C:\Program Files\Java\jdk1.8.0_66\jre\lib\jce.jar;C:\Program Files\Java\jdk1.8.0_66\jre\lib\charsets.jar;C:\Program Files\Java\jdk1.8.0_66\jre\lib\jfr.jar;C:\Program Files\Java\jdk1.8.0_66\jre\classes"/>
    <property name="java.vendor" value="Oracle Corporation"/>
    <property name="maven.home" value="C:\Program Files\NetBeans 8.1\java\maven"/>
    <property name="file.separator" value="\"/>
    <property name="java.vendor.url.bug" value="http://bugreport.sun.com/bugreport/"/>
    <property name="sun.cpu.endian" value="little"/>
    <property name="sun.io.unicode.encoding" value="UnicodeLittle"/>
    <property name="sun.desktop" value="windows"/>
    <property name="sun.cpu.isalist" value="amd64"/>
  </properties>
  <testcase name="TestValidOperationInLine1" classname="TestNoEmptyAndValidMeanings" time="0"/>
  <testcase name="TestValidOperationInLine2" classname="TestNoEmptyAndValidMeanings" time="0"/>
  <testcase name="TestValidOperationInLine3" classname="TestNoEmptyAndValidMeanings" time="0"/>
  <testcase name="TestValidOperationInLine4" classname="TestNoEmptyAndValidMeanings" time="0"/>
  <testcase name="TestValidResultInLine1" classname="TestNoEmptyAndValidMeanings" time="0"/>
  <testcase name="TestValidResultInLine2" classname="TestNoEmptyAndValidMeanings" time="0"/>
  <testcase name="TestValidResultInLine3" classname="TestNoEmptyAndValidMeanings" time="0"/>
  <testcase name="TestValidResultInLine4" classname="TestNoEmptyAndValidMeanings" time="0"/>
  <testcase name="TestNoEptyOperand1InLine1" classname="TestNoEmptyAndValidMeanings" time="0"/>
  <testcase name="TestNoEptyOperand1InLine2" classname="TestNoEmptyAndValidMeanings" time="0"/>
  <testcase name="TestNoEptyOperand1InLine3" classname="TestNoEmptyAndValidMeanings" time="0"/>
  <testcase name="TestNoEptyOperand1InLine4" classname="TestNoEmptyAndValidMeanings" time="0"/>
  <testcase name="TestValidOperand1InLine1" classname="TestNoEmptyAndValidMeanings" time="0"/>
  <testcase name="TestValidOperand1InLine2" classname="TestNoEmptyAndValidMeanings" time="0"/>
  <testcase name="TestValidOperand1InLine3" classname="TestNoEmptyAndValidMeanings" time="0"/>
  <testcase name="TestValidOperand1InLine4" classname="TestNoEmptyAndValidMeanings" time="0"/>
  <testcase name="TestNoEptyResaltInLine1" classname="TestNoEmptyAndValidMeanings" time="0"/>
  <testcase name="TestNoEptyResaltInLine2" classname="TestNoEmptyAndValidMeanings" time="0"/>
  <testcase name="TestNoEptyResaltInLine3" classname="TestNoEmptyAndValidMeanings" time="0"/>
  <testcase name="TestNoEptyResaltInLine4" classname="TestNoEmptyAndValidMeanings" time="0"/>
  <testcase name="TestNoEptyOperationInLine1" classname="TestNoEmptyAndValidMeanings" time="0"/>
  <testcase name="TestNoEptyOperationInLine2" classname="TestNoEmptyAndValidMeanings" time="0"/>
  <testcase name="TestNoEptyOperationInLine3" classname="TestNoEmptyAndValidMeanings" time="0"/>
  <testcase name="TestNoEptyOperationInLine4" classname="TestNoEmptyAndValidMeanings" time="0"/>
  <testcase name="TestNoEptyOperand2InLine1" classname="TestNoEmptyAndValidMeanings" time="0"/>
  <testcase name="TestNoEptyOperand2InLine2" classname="TestNoEmptyAndValidMeanings" time="0"/>
  <testcase name="TestNoEptyOperand2InLine3" classname="TestNoEmptyAndValidMeanings" time="0"/>
  <testcase name="TestNoEptyOperand2InLine4" classname="TestNoEmptyAndValidMeanings" time="0"/>
  <testcase name="TestValidOperand2InLine1" classname="TestNoEmptyAndValidMeanings" time="0"/>
  <testcase name="TestValidOperand2InLine2" classname="TestNoEmptyAndValidMeanings" time="0"/>
  <testcase name="TestValidOperand2InLine3" classname="TestNoEmptyAndValidMeanings" time="0.001"/>
  <testcase name="TestValidOperand2InLine4" classname="TestNoEmptyAndValidMeanings" time="0"/>
</testsuite>